<svg width="52" height="46" viewBox="0 0 52 46" fill="none" xmlns="http://www.w3.org/2000/svg">
<path d="M26 0C11.648 0 0 10.304 0 23C0 35.696 11.648 46 26 46C40.352 46 52 35.696 52 23C52 10.304 40.352 0 26 0ZM20.8 34.5L7.8 23L11.466 19.757L20.8 27.991L40.534 10.534L44.2 13.8L20.8 34.5Z" fill="#C190FF"/>
</svg>
