<svg width="126" height="119" viewBox="0 0 126 119" fill="none" xmlns="http://www.w3.org/2000/svg">
<g filter="url(#filter0_dd)">
<path d="M83.2125 49.7425C81.3425 39.6081 73.01 32 63 32C55.0525 32 48.15 36.8175 44.7125 43.8675C36.435 44.8075 30 52.2981 30 61.375C30 71.0981 37.3975 79 46.5 79H82.25C89.84 79 96 72.42 96 64.3125C96 56.5575 90.3625 50.2712 83.2125 49.7425ZM76.75 58.4375L63 73.125L49.25 58.4375H57.5V46.6875H68.5V58.4375H76.75Z" fill="#ACECFD"/>
</g>
<defs>
<filter id="filter0_dd" x="0" y="0" width="126" height="119" filterUnits="userSpaceOnUse" color-interpolation-filters="sRGB">
<feFlood flood-opacity="0" result="BackgroundImageFix"/>
<feColorMatrix in="SourceAlpha" type="matrix" values="0 0 0 0 0 0 0 0 0 0 0 0 0 0 0 0 0 0 127 0"/>
<feOffset dy="-10"/>
<feGaussianBlur stdDeviation="11"/>
<feColorMatrix type="matrix" values="0 0 0 0 0.67451 0 0 0 0 0.92549 0 0 0 0 0.992157 0 0 0 0.22 0"/>
<feBlend mode="normal" in2="BackgroundImageFix" result="effect1_dropShadow"/>
<feColorMatrix in="SourceAlpha" type="matrix" values="0 0 0 0 0 0 0 0 0 0 0 0 0 0 0 0 0 0 127 0"/>
<feOffset dy="10"/>
<feGaussianBlur stdDeviation="15"/>
<feColorMatrix type="matrix" values="0 0 0 0 0.67451 0 0 0 0 0.92549 0 0 0 0 0.992157 0 0 0 0.27 0"/>
<feBlend mode="normal" in2="effect1_dropShadow" result="effect2_dropShadow"/>
<feBlend mode="normal" in="SourceGraphic" in2="effect2_dropShadow" result="shape"/>
</filter>
</defs>
</svg>
