<svg width="38" height="38" viewBox="0 0 38 38" fill="none" xmlns="http://www.w3.org/2000/svg">
<path d="M29.5556 0H4.22222C1.87889 0 0 1.9 0 4.22222V33.7778C0 36.1 1.87889 38 4.22222 38H33.7778C36.1 38 38 36.1 38 33.7778V8.44444L29.5556 0ZM19 33.7778C15.4956 33.7778 12.6667 30.9489 12.6667 27.4444C12.6667 23.94 15.4956 21.1111 19 21.1111C22.5044 21.1111 25.3333 23.94 25.3333 27.4444C25.3333 30.9489 22.5044 33.7778 19 33.7778ZM25.3333 12.6667H4.22222V4.22222H25.3333V12.6667Z" fill="#ACECFD"/>
</svg>
