<svg width="50" height="51" viewBox="0 0 50 51" fill="none" xmlns="http://www.w3.org/2000/svg">
<path d="M25 0.5C11.2 0.5 0 11.7 0 25.5C0 39.3 11.2 50.5 25 50.5C38.8 50.5 50 39.3 50 25.5C50 11.7 38.8 0.5 25 0.5ZM37.5 28H27.5V38H22.5V28H12.5V23H22.5V13H27.5V23H37.5V28Z" fill="#AEFDAC"/>
</svg>
