<svg width="138" height="158" viewBox="0 0 138 158" fill="none" xmlns="http://www.w3.org/2000/svg">
<g filter="url(#filter0_dd)">
<path d="M71.1111 60H66.8889V81.1111H71.1111V60ZM81.3078 64.5811L78.31 67.5789C81.6456 70.26 83.7778 74.3767 83.7778 79C83.7778 87.17 77.17 93.7778 69 93.7778C60.83 93.7778 54.2222 87.17 54.2222 79C54.2222 74.3767 56.3544 70.26 59.6689 67.5578L56.6922 64.5811C52.5967 68.0644 50 73.2156 50 79C50 89.4922 58.5078 98 69 98C79.4922 98 88 89.4922 88 79C88 73.2156 85.4033 68.0644 81.3078 64.5811Z" fill="white"/>
</g>
<defs>
<filter id="filter0_dd" x="0" y="0" width="138" height="158" filterUnits="userSpaceOnUse" color-interpolation-filters="sRGB">
<feFlood flood-opacity="0" result="BackgroundImageFix"/>
<feColorMatrix in="SourceAlpha" type="matrix" values="0 0 0 0 0 0 0 0 0 0 0 0 0 0 0 0 0 0 127 0"/>
<feOffset dy="-10"/>
<feGaussianBlur stdDeviation="25"/>
<feColorMatrix type="matrix" values="0 0 0 0 1 0 0 0 0 1 0 0 0 0 1 0 0 0 0.5 0"/>
<feBlend mode="normal" in2="BackgroundImageFix" result="effect1_dropShadow"/>
<feColorMatrix in="SourceAlpha" type="matrix" values="0 0 0 0 0 0 0 0 0 0 0 0 0 0 0 0 0 0 127 0"/>
<feOffset dy="10"/>
<feGaussianBlur stdDeviation="25"/>
<feColorMatrix type="matrix" values="0 0 0 0 1 0 0 0 0 1 0 0 0 0 1 0 0 0 0.5 0"/>
<feBlend mode="normal" in2="effect1_dropShadow" result="effect2_dropShadow"/>
<feBlend mode="normal" in="SourceGraphic" in2="effect2_dropShadow" result="shape"/>
</filter>
</defs>
</svg>
