<svg width="40" height="56" viewBox="0 0 40 56" fill="none" xmlns="http://www.w3.org/2000/svg">
<path fill-rule="evenodd" clip-rule="evenodd" d="M12.5004 1.75C12.5004 1.05965 13.06 0.5 13.7504 0.5L26.2504 0.5C26.9406 0.5 27.5004 1.05965 27.5004 1.75V3L37.5004 3C38.8811 3 40.0004 4.1193 40.0004 5.5V8C40.0004 9.3807 38.8811 10.5 37.5004 10.5L2.50037 10.5C1.11967 10.5 0.000366211 9.3807 0.000366211 8L0.000366211 5.5C0.000366211 4.1193 1.11967 3 2.50037 3L12.5004 3V1.75ZM5.15174 13C3.71332 13 2.57159 14.2108 2.65607 15.6468L4.86194 53.1467C4.93967 54.4682 6.03394 55.5 7.35764 55.5L32.6431 55.5C33.9669 55.5 35.0611 54.4682 35.1389 53.1467L37.3446 15.6468C37.4291 14.2108 36.2874 13 34.8489 13L5.15174 13Z" fill="#FDACAC"/>
</svg>
