<svg width="42" height="48" viewBox="0 0 42 48" fill="none" xmlns="http://www.w3.org/2000/svg">
<path d="M6.58535 22.3512L6.74059 18.7934L26.8602 7.56777V0L0 15.4918V44.9025L35.1532 25.4487V28.9545L15.0336 39.976L15.0867 48L42 32.3562V2.89344L6.58535 22.3512ZM35.4146 17.4247L6.68748 33.8329V30.2271L35.4106 14.1271L35.4146 17.4247Z" fill="url(#paint0_linear)"/>
<defs>
<linearGradient id="paint0_linear" x1="13.847" y1="53.7222" x2="39.4373" y2="0.0179484" gradientUnits="userSpaceOnUse">
<stop offset="0.385417" stop-color="#A967D2" stop-opacity="0.9"/>
<stop offset="1" stop-color="#C7F1FE" stop-opacity="0"/>
</linearGradient>
</defs>
</svg>
